Rv2043c	-T415
Rv2043c	Val44Gly
Rv2043c	-G322
Rv2043c	His57Asp
Rv2043c	Thr76Pro
Rv2043c	+G416
Rv2043c	Leu4Ser
Rv2043c	-CG525
Rv2043c	Ser67Pro
Rv2043c	Gly78Cys
Rv2043c	Gly132Ser
Rv2043c	-G519
Rv2043c	Thr135Ala
Rv2043c	His57Tyr
Rv2043c	+T520
Rv2043c	-CACC345
Rv2043c	-CC509
Rv2043c	-T549
Rv2043c	Asp63Ala
Rv2043c	+G559
Rv2043c	Gly132Ala
Rv2043c	Tyr103Ter
intergenic2135	T2289252C
Rv2043c	-G370
Rv2043c	Thr160Ala
Rv2043c	Met175Arg
Rv2043c	Gly24Asp
Rv2043c	-AACA286
Rv2043c	-GGCC178
Rv2043c	Thr142Pro
Rv2043c	+G516
Rv2043c	Val139Met
Rv2043c	Leu159Pro
Rv2043c	-CCA530
Rv2043c	Asp158Val
Rv2043c	Thr47Ile
Rv2043c	Ser66Ter
Rv2043c	His137Arg
Rv2043c	Gly97Val
Rv2043c	Gln10Pro
Rv2043c	-T172
Rv2043c	-CCACA184
Rv2043c	Asp145Asn
Rv2043c	-G313
Rv2043c	Ile6Leu
Rv2043c	Asp12Ala
Rv2043c	Leu156Pro
Rv2043c	Thr100Ile
Rv2043c	+C507
Rv2043c	Val9Ala
Rv2043c	Tyr41Ter
Rv2043c	Tyr103His
Rv2043c	Cys138Ser
Rv2043c	Gly97Ser
Rv2043c	Val139Gly
Rv2043c	-C420
Rv2043c	Gln10Lys
Rv2043c	Leu182Trp
Rv2043c	-AACATCTT286
Rv2043c	Thr135Ser
Rv2043c	-ACC344
Rv2043c	Lys96Arg
Rv2043c	Tyr34Ter
Rv2043c	Ile5Ser
Rv2043c	Ter187Gly
Rv2043c	Ala146Val
Rv2043c	-GGTCGCGCCGCT516
Rv2043c	Pro54Leu
Rv2043c	+G524
Rv2043c	-T475
Rv2043c	Ser59Phe
Rv2043c	-T558
Rv2043c	Cys14Xaa
Rv2043c	Ser104Arg
Rv2043c	Trp68Arg
Rv2043c	Asp8Glu
Rv2043c	Phe106Leu
Rv2043c	-A169
Rv2043c	Lys48Thr
Rv2043c	Asp63Gly
intergenic2135	C2289246G
Rv2043c	Ser66Xaa
Rv2043c	Leu182Ser
Rv2043c	-A528
Rv2043c	His71Tyr
Rv2043c	Met175Ile
Rv2043c	Ala165Gly
Rv2043c	-T277
Rv2043c	Phe58Ser
Rv2043c	Cys138Arg
Rv2043c	Phe81Cys
Rv2043c	-CGGC338
Rv2043c	Gln10Arg
Rv2043c	Lys96Thr
Rv2043c	Leu172Pro
Rv2043c	Arg154Gly
Rv2043c	Thr47Ala
Rv2043c	+G426
Rv2043c	-G526
Rv2043c	Gly105Ser
Rv2043c	-A402
Rv2043c	Val180Phe
Rv2043c	His57Pro
Rv2043c	-G289
Rv2043c	Thr177Pro
Rv2043c	Thr142Ala
Rv2043c	+GG388
Rv2043c	-G275
Rv2043c	Met175Val
Rv2043c	+C418
Rv2043c	Asp8Asn
Rv2043c	-T544
Rv2043c	Thr160Lys
Rv2043c	+C26
Rv2043c	Pro62Leu
Rv2043c	-T523
Rv2043c	+CG508
Rv2043c	-T463
Rv2043c	-G236
Rv2043c	Ser164Pro
Rv2043c	His51Arg
Rv2043c	Pro54Gln
Rv2043c	Lys96Glu
Rv2043c	+G410
Rv2043c	Asp136Ala
Rv2043c	-A28
Rv2043c	Asp49Ala
Rv2043c	Phe94Leu
Rv2043c	+GG390
Rv2043c	-AC528
Rv2043c	+C453
Rv2043c	Gly78Asp
Rv2043c	Leu27Pro
Rv2043c	Asp136Gly
Rv2043c	Val139Ala
Rv2043c	-A459
Rv2043c	-A421
Rv2043c	Tyr41Asp
Rv2043c	Gln141Pro
Rv2043c	-A286
Rv2043c	Ala146Thr
intergenic2135	A2289248G
Rv2043c	Ala102Thr
Rv2043c	Thr76Ile
Rv2043c	-A187
Rv2043c	-CTT281
Rv2043c	Cys14Arg
Rv2043c	Phe58Val
Rv2043c	Ile31Ser
intergenic2135	A2289242C
intergenic2135	A2289242G
intergenic2135	A2289242T
intergenic2135	C2289243A
intergenic2135	C2289243G
intergenic2135	C2289243T
intergenic2135	G2289244A
intergenic2135	G2289244C
intergenic2135	G2289244T
intergenic2135	T2289245A
intergenic2135	T2289245C
intergenic2135	T2289245G
intergenic2135	C2289246A
intergenic2135	C2289246G
intergenic2135	C2289246T
intergenic2135	C2289247A
intergenic2135	C2289247G
intergenic2135	C2289247T
intergenic2135	A2289248C
intergenic2135	A2289248G
intergenic2135	A2289248T
intergenic2135	C2289249A
intergenic2135	C2289249G
intergenic2135	C2289249T
intergenic2135	C2289250A
intergenic2135	C2289250G
intergenic2135	C2289250T
intergenic2135	A2289251C
intergenic2135	A2289251G
intergenic2135	A2289251T
intergenic2135	T2289252A
intergenic2135	T2289252C
intergenic2135	T2289252G
intergenic2135	A2289253C
intergenic2135	A2289253G
intergenic2135	A2289253T
intergenic2135	C2289254A
intergenic2135	C2289254G
intergenic2135	C2289254T
intergenic2135	G2289255A
intergenic2135	G2289255C
intergenic2135	G2289255T
intergenic2135	T2289256A
intergenic2135	T2289256C
intergenic2135	T2289256G
intergenic2135	T2289257A
intergenic2135	T2289257C
intergenic2135	T2289257G
intergenic2135	C2289258A
intergenic2135	C2289258G
intergenic2135	C2289258T
intergenic2135	G2289259A
intergenic2135	G2289259C
intergenic2135	G2289259T
intergenic2135	G2289260A
intergenic2135	G2289260C
intergenic2135	G2289260T
intergenic2135	G2289261A
intergenic2135	G2289261C
intergenic2135	G2289261T
intergenic2135	C2289262A
intergenic2135	C2289262G
intergenic2135	C2289262T
intergenic2135	G2289263A
intergenic2135	G2289263C
intergenic2135	G2289263T
intergenic2135	A2289264C
intergenic2135	A2289264G
intergenic2135	A2289264T
intergenic2135	C2289265A
intergenic2135	C2289265G
intergenic2135	C2289265T
intergenic2135	T2289266A
intergenic2135	T2289266C
intergenic2135	T2289266G
intergenic2135	G2289267A
intergenic2135	G2289267C
intergenic2135	G2289267T
intergenic2135	C2289268A
intergenic2135	C2289268G
intergenic2135	C2289268T
intergenic2135	C2289269A
intergenic2135	C2289269G
intergenic2135	C2289269T
intergenic2135	C2289270A
intergenic2135	C2289270G
intergenic2135	C2289270T
intergenic2135	G2289271A
intergenic2135	G2289271C
intergenic2135	G2289271T
intergenic2135	G2289272A
intergenic2135	G2289272C
intergenic2135	G2289272T
intergenic2135	G2289273A
intergenic2135	G2289273C
intergenic2135	G2289273T
intergenic2135	C2289274A
intergenic2135	C2289274G
intergenic2135	C2289274T
intergenic2135	A2289275C
intergenic2135	A2289275G
intergenic2135	A2289275T
intergenic2135	G2289276A
intergenic2135	G2289276C
intergenic2135	G2289276T
intergenic2135	T2289277A
intergenic2135	T2289277C
intergenic2135	T2289277G
intergenic2135	T2289278A
intergenic2135	T2289278C
intergenic2135	T2289278G
intergenic2135	T2289279A
intergenic2135	T2289279C
intergenic2135	T2289279G
intergenic2135	G2289280A
intergenic2135	G2289280C
intergenic2135	G2289280T
intergenic2135	C2289281A
intergenic2135	C2289281G
intergenic2135	C2289281T
intergenic2135	C2289282A
intergenic2135	C2289282G
intergenic2135	C2289282T
Rv2044c	-C230
Rv2043c	Leu35Pro
Rv2043c	Val7Leu
Rv2043c	Val7Asp
Rv2043c	Val7Phe
Rv2043c	Val7Ala
Rv2043c	Ala143Asp
Rv2043c	Arg154Met
Rv2043c	Arg123Ser
Rv2043c	Ser32Ile
Rv2043c	His51Asp
Rv2043c	His51Asn
Rv2043c	His51Leu
Rv2043c	His51Arg
Rv2043c	Leu85Arg
Rv2043c	His51Tyr
Rv2043c	Asp8Tyr
Rv2043c	Asp8Val
Rv2043c	Asp8Asn
Rv2043c	Gly17Cys
Rv2043c	Asp8His
Rv2043c	Asp8Gly
Rv2043c	Asp8Glu
Rv2043c	His57Gln
Rv2043c	Asp129Glu
Rv2043c	Asp129Asn
Rv2043c	Asp145Glu
Rv2043c	Gly97Ser
Rv2043c	Lys48*
Rv2043c	Asp136Val
Rv2043c	Ile5Met
Rv2043c	Ile5Asn
Rv2043c	Leu156Arg
Rv2043c	Ile5Phe
Rv2043c	Lys48Glu
Rv2043c	Ile5Thr
Rv2043c	Val155Met
Rv2043c	Asn11Thr
Rv2043c	Gly124Ser
Rv2043c	Ser164*
Rv2043c	Thr177Thr
Rv2043c	His42Asn
Rv2043c	Leu4Phe
Rv2043c	Phe81Ser
Rv2043c	Glu181*
Rv2043c	Ala28Ser
Rv2043c	Leu4*
Rv2043c	Ser67Pro
Rv2043c	Leu159Gln
Rv2043c	Val139Gly
Rv2043c	Trp119*
Rv2043c	Gly97Asp
Rv2043c	Pro54Thr
Rv2043c	Pro54Gln
Rv2043c	Pro54Ser
Rv2043c	Pro54Arg
Rv2043c	Lys96Thr
Rv2043c	Lys96Gln
Rv2043c	Lys96Asn
Rv2043c	Lys96Met
Rv2043c	Pro54Leu
Rv2043c	Lys96Glu
Rv2043c	Cys138Gly
Rv2043c	Tyr95*
Rv2043c	Lys96*
Rv2043c	Val21Glu
Rv2043c	Leu85Gln
Rv2043c	Val21Ala
Rv2043c	Thr142Met
Rv2043c	Trp119Arg
Rv2043c	Trp119Leu
Rv2043c	Glu144*
Rv2043c	Thr142Arg
Rv2043c	Trp119Gly
Rv2043c	Asp12His
Rv2043c	Asp12Asn
Rv2043c	Asp53Glu
Rv2043c	Asp12Gly
Rv2043c	Asp12Glu
Rv2043c	Gly24Val
Rv2043c	Asp12Tyr
Rv2043c	Ala146Glu
Rv2043c	Asp110Glu
Rv2043c	Thr135Ser
Rv2043c	Asp110His
Rv2043c	Asp110Asn
Rv2043c	Leu159Pro
Rv2043c	Phe106Ser
Rv2043c	Gly78Val
Rv2043c	Glu173*
Rv2043c	Gly78Asp
Rv2043c	Gly78Cys
Rv2043c	Tyr103His
Rv2043c	Trp68*
Rv2043c	Val155Glu
Rv2043c	Lys96Arg
Rv2043c	Thr22Ile
Rv2043c	His57Arg
Rv2043c	Tyr34Tyr
Rv2043c	Leu85Pro
Rv2043c	His57Asp
Rv2043c	Gly55Cys
Rv2043c	His57Asn
Rv2043c	Trp68Cys
Rv2043c	Ala161Pro
Rv2043c	Trp68Leu
Rv2043c	Met1Ile
Rv2043c	Met1Leu
Rv2043c	Met175Thr
Rv2043c	Met175Val
Rv2043c	Met175Lys
Rv2043c	Met175Ile
Rv2043c	Cys72*
Rv2043c	Ala38Gly
Rv2043c	Cys72Trp
Rv2043c	His57Tyr
Rv2043c	Cys72Arg
Rv2043c	Ala3Ala
Rv2043c	Phe13Tyr
Rv2043c	Ala3Glu
Rv2043c	Val125Asp
Rv2043c	His71Gln
Rv2043c	His71Arg
Rv2043c	Gly17Asp
Rv2043c	Ala46Val
Rv2043c	Ala46Pro
Rv2043c	Asp136Tyr
Rv2043c	Gly162Asp
Rv2043c	Ala46Glu
Rv2043c	Val130Glu
Rv2043c	Ser66*
Rv2043c	Ala134Val
Rv2043c	Thr135Asn
Rv2043c	Ala92Glu
Rv2043c	Ala146Thr
Rv2043c	Cys72Tyr
Rv2043c	Leu19Pro
Rv2043c	Ser59Pro
Rv2043c	Pro70Ser
Rv2043c	Asp49Val
Rv2043c	Gly105Asp
Rv2043c	Glu37*
Rv2043c	Pro62Leu
Rv2043c	Asp49Tyr
Rv2043c	His43Gln
Rv2043c	Asp49Glu
Rv2043c	Pro62Gln
Rv2043c	Pro62Ser
Rv2043c	Asp49Asn
Rv2043c	Ala165Asp
Rv2043c	Gly108*
Rv2043c	Asp63Tyr
Rv2043c	Leu120Pro
Rv2043c	Leu120Gln
Rv2043c	Gly24Asp
Rv2043c	Asp63Gly
Rv2043c	Asp63Glu
Rv2043c	Asp63His
Rv2043c	Glu173Gly
Rv2043c	Glu15*
Rv2043c	Thr76Ile
Rv2043c	Thr160Arg
Rv2043c	Asp136His
Rv2043c	Tyr103*
Rv2043c	Val180Phe
Rv2043c	Gly101*
Rv2043c	Leu27Pro
Rv2043c	Ala102Pro
Rv2043c	Gly108Glu
Rv2043c	Gln141*
Rv2043c	Lys48Thr
Rv2043c	Arg140Pro
Rv2043c	Pro69Leu
Rv2043c	Gly105Val
Rv2043c	Phe50Phe
Rv2043c	Ile31Asn
Rv2043c	Pro69Gln
Rv2043c	Ile31Phe
Rv2043c	Ser65Pro
Rv2043c	His71Leu
Rv2043c	Gly108Arg
Rv2043c	Val131Asp
Rv2043c	Val163Glu
Rv2043c	Thr153Asn
Rv2043c	Gly162Val
Rv2043c	Ser88*
Rv2043c	Leu159Val
Rv2043c	Tyr99*
Rv2043c	Leu172Pro
Rv2043c	His71Tyr
Rv2043c	Thr135Pro
Rv2043c	Asn149Tyr
Rv2043c	Cys138Tyr
Rv2043c	Cys138Arg
Rv2043c	Cys138Ser
Rv2043c	Cys138Phe
Rv2043c	Asp80His
Rv2043c	Tyr41*
Rv2043c	Val139Ala
Rv2043c	Ser164Pro
Rv2043c	Val139Glu
Rv2043c	Phe58Leu
Rv2043c	Val139Met
Rv2043c	Gly97Cys
Rv2043c	Phe58Ser
Rv2043c	Thr160Lys
Rv2043c	Ala170Ser
Rv2043c	Ala171Glu
Rv2043c	Gly23Val
Rv2043c	Glu111*
Rv2043c	Tyr41Tyr
Rv2043c	Leu116Gln
Rv2043c	Ile6Phe
Rv2043c	Leu116Arg
Rv2043c	Ile6Met
Rv2043c	Ser67*
Rv2043c	Ile6Thr
Rv2043c	Leu151Ser
Rv2043c	Val128Ala
Rv2043c	Thr114Thr
Rv2043c	Leu151*
Rv2043c	Thr47Ile
Rv2043c	Thr47Ser
Rv2043c	His82Arg
Rv2043c	Ile133Asn
Rv2043c	His82Leu
Rv2043c	Cys72Phe
Rv2043c	Ser186Phe
Rv2043c	Phe94Ser
Rv2043c	Phe94Phe
Rv2043c	Ala36Ser
Rv2043c	Ala36Asp
Rv2043c	Ser104Arg
Rv2043c	Leu4Ser
Rv2043c	Gly16Gly
Rv2043c	Ala171Thr
Rv2043c	Gly16Arg
Rv2043c	Cys184Arg
Rv2043c	Gly16Val
Rv2043c	Pro115Ala
Rv2043c	Pro115Arg
Rv2043c	Ser59Phe
Rv2043c	Gln10*
Rv2043c	Ala146Val
Rv2043c	Ser18Leu
Rv2043c	Val180Asp
Rv2043c	Gly132Val
Rv2043c	Ala30Pro
Rv2043c	Ser18*
Rv2043c	Glu174Gly
Rv2043c	Gln10Glu
Rv2043c	Tyr64*
Rv2043c	Gln10His
Rv2043c	Gln10Arg
Rv2043c	Cys14Arg
Rv2043c	Glu107Glu
Rv2043c	Cys14Trp
Rv2043c	Cys14Tyr
Rv2043c	Glu127Asp
Rv2043c	Thr142Lys
Rv2043c	Asp49Gly
Rv2043c	Gln122*
Rv2043c	Val131Phe
Rv2043c	Pro62Arg
Rv2043c	Gly132Ala
Rv2043c	Gly132Cys
Rv2043c	Gly132Asp
Rv2043c	Ser104Cys
Rv2043c	Val147Ala
Rv2043c	Gly132Arg
Rv2043c	Gly132Ser
Rv2043c	Glu127*
Rv2043c	Cys14*
Rv2043c	Ala79Pro
